modules/testbench.vcd
$date
	Fri Feb 16 08:54:43 2018
$end
$version
	Icarus Verilog
$end
$timescale
	1s
$end
$scope module testbench $end
$var wire 1 ! zero $end
$var wire 5 " writeReg [4:0] $end
$var wire 32 # writeData [31:0] $end
$var wire 1 $ syscall_control $end
$var wire 32 % signExtendedValue [31:0] $end
$var wire 1 & runStats $end
$var wire 32 ' regV0 [31:0] $end
$var wire 32 ( regRA [31:0] $end
$var wire 32 ) regA0 [31:0] $end
$var wire 32 * readData2 [31:0] $end
$var wire 32 + readData1 [31:0] $end
$var wire 32 , nextPC [31:0] $end
$var wire 32 - jumpAddr [31:0] $end
$var wire 1 . isJR $end
$var wire 1 / isJAL $end
$var wire 32 0 instructionCount [31:0] $end
$var wire 32 1 instr [31:0] $end
$var wire 32 2 dataMemRead [31:0] $end
$var wire 32 3 currPC [31:0] $end
$var wire 11 4 controlSignals [10:0] $end
$var wire 32 5 branchMuxResult [31:0] $end
$var wire 1 6 andResult $end
$var wire 32 7 aluMuxOut [31:0] $end
$var wire 32 8 aluAddress [31:0] $end
$var wire 32 9 adderResult [31:0] $end
$var wire 32 : PCplus4 [31:0] $end
$var wire 32 ; JRmuxOut [31:0] $end
$var reg 1 < clk $end
$scope module ALU_block $end
$var wire 3 = aluOp [2:0] $end
$var wire 32 > data2 [31:0] $end
$var wire 32 ? data1 [31:0] $end
$var reg 32 @ address [31:0] $end
$var reg 1 ! zero $end
$upscope $end
$scope module JRmux $end
$var wire 32 A input1 [31:0] $end
$var wire 32 B input0 [31:0] $end
$var wire 1 . controlSignal $end
$var reg 32 C muxOut [31:0] $end
$upscope $end
$scope module JumpAddr_block $end
$var wire 32 D jumpAddr [31:0] $end
$var wire 32 E instr [31:0] $end
$var wire 32 F PCplus4 [31:0] $end
$upscope $end
$scope module PC_block $end
$var wire 1 < clk $end
$var wire 32 G nextPC [31:0] $end
$var reg 32 H currPC [31:0] $end
$upscope $end
$scope module PCadd4 $end
$var wire 32 I currPC [31:0] $end
$var wire 32 J PCplus4 [31:0] $end
$upscope $end
$scope module aluMux $end
$var wire 1 K controlSignal $end
$var wire 32 L input1 [31:0] $end
$var wire 32 M input0 [31:0] $end
$var reg 32 N muxOut [31:0] $end
$upscope $end
$scope module branchAdder $end
$var wire 32 O pcPlus4 [31:0] $end
$var wire 32 P signedImmediate [31:0] $end
$var reg 32 Q adderResult [31:0] $end
$upscope $end
$scope module branchAnd $end
$var wire 1 R branch $end
$var wire 1 ! zero $end
$var reg 1 6 andResult $end
$upscope $end
$scope module branchMux $end
$var wire 1 6 controlSignal $end
$var wire 32 S input0 [31:0] $end
$var wire 32 T input1 [31:0] $end
$var reg 32 U muxOut [31:0] $end
$upscope $end
$scope module control_block $end
$var wire 32 V instr [31:0] $end
$var reg 3 W ALUop [2:0] $end
$var reg 1 X ALUsrc $end
$var reg 1 Y branch $end
$var reg 1 / isJAL $end
$var reg 1 . isJR $end
$var reg 1 Z jump $end
$var reg 1 [ memRead $end
$var reg 1 \ memToReg $end
$var reg 1 ] memWrite $end
$var reg 1 ^ regDst $end
$var reg 1 _ regWrite $end
$var reg 11 ` signals [10:0] $end
$var reg 1 $ syscall $end
$upscope $end
$scope module dataMem $end
$var wire 32 a address [31:0] $end
$var wire 1 < clk $end
$var wire 1 b memRead $end
$var wire 1 c memWrite $end
$var wire 32 d writeData [31:0] $end
$var reg 32 e readData [31:0] $end
$upscope $end
$scope module dataMemMux $end
$var wire 1 f controlSignal $end
$var wire 32 g input0 [31:0] $end
$var wire 32 h input1 [31:0] $end
$var reg 32 i muxOut [31:0] $end
$upscope $end
$scope module finalStats $end
$var wire 1 < clk $end
$var wire 1 & runStats $end
$var wire 32 j instructionCount [31:0] $end
$var reg 32 k clkCount [31:0] $end
$var real 1 l ipc $end
$upscope $end
$scope module instructionMemory $end
$var wire 32 m currPC [31:0] $end
$var reg 32 n instr [31:0] $end
$var reg 32 o instructionCount [31:0] $end
$upscope $end
$scope module jumpMux $end
$var wire 1 p controlSignal $end
$var wire 32 q input0 [31:0] $end
$var wire 32 r input1 [31:0] $end
$var reg 32 s muxOut [31:0] $end
$upscope $end
$scope module reg_block $end
$var wire 32 t JALaddress [31:0] $end
$var wire 32 u a0 [31:0] $end
$var wire 1 < clk $end
$var wire 1 / isJAL $end
$var wire 32 v ra [31:0] $end
$var wire 5 w readReg1 [4:0] $end
$var wire 5 x readReg2 [4:0] $end
$var wire 1 y regWrite $end
$var wire 32 z v0 [31:0] $end
$var wire 32 { writeData [31:0] $end
$var wire 5 | writeReg [4:0] $end
$var reg 32 } readOut1 [31:0] $end
$var reg 32 ~ readOut2 [31:0] $end
$var integer 32 !" i [31:0] $end
$upscope $end
$scope module registerMux $end
$var wire 1 "" controlSignal $end
$var wire 5 #" input0 [4:0] $end
$var wire 5 $" input1 [4:0] $end
$var reg 5 %" muxOut [4:0] $end
$upscope $end
$scope module signExtend_block $end
$var wire 32 &" instr [31:0] $end
$var reg 32 '" extendedImmediate [31:0] $end
$upscope $end
$scope module testSyscall $end
$var wire 32 (" a [31:0] $end
$var wire 1 $ syscall $end
$var wire 32 )" v [31:0] $end
$var reg 1 & runStats $end
$upscope $end
$upscope $end
$enddefinitions $end
#0
$dumpvars
b0 )"
b0 ("
b111111111111111 '"
b111100000111010111111111111111 &"
b11101 %"
b1111 $"
b11101 #"
0""
b100000 !"
b0 ~
b0 }
b11101 |
b1111111111111110000000000000000 {
b0 z
1y
b11101 x
b0 w
b0 v
b0 u
b10000000000000000101000 t
b10000000000000000100100 s
b11101011111111111111100 r
b10000000000000000100100 q
0p
b1 o
b111100000111010111111111111111 n
b10000000000000000100000 m
r0 l
b1 k
b1 j
b1111111111111110000000000000000 i
bx h
b1111111111111110000000000000000 g
0f
bx e
b0 d
0c
0b
b1111111111111110000000000000000 a
b11110 `
1_
0^
0]
0\
0[
0Z
0Y
1X
b11 W
b111100000111010111111111111111 V
b10000000000000000100100 U
b10000100000000000100000 T
b10000000000000000100100 S
0R
b10000100000000000100000 Q
b111111111111111 P
b10000000000000000100100 O
b111111111111111 N
b0 M
b111111111111111 L
1K
b10000000000000000100100 J
b10000000000000000100000 I
b10000000000000000100000 H
b10000000000000000100100 G
b10000000000000000100100 F
b111100000111010111111111111111 E
b11101011111111111111100 D
b11101011111111111111100 C
b11101011111111111111100 B
b0 A
b1111111111111110000000000000000 @
b0 ?
b111111111111111 >
b11 =
1<
b11101011111111111111100 ;
b10000000000000000100100 :
b10000100000000000100000 9
b1111111111111110000000000000000 8
b111111111111111 7
06
b10000000000000000100100 5
b11110 4
b10000000000000000100000 3
bx 2
b111100000111010111111111111111 1
b1 0
0/
0.
b11101011111111111111100 -
b10000000000000000100100 ,
b0 +
b0 *
b0 )
b0 (
b0 '
0&
b111111111111111 %
0$
b1111111111111110000000000000000 #
b11101 "
0!
$end
#10
0<
#20
b1111111111111111111111111111100 #
b1111111111111111111111111111100 i
b1111111111111111111111111111100 {
b10111101111111111111110000 ;
b10111101111111111111110000 C
b10111101111111111111110000 r
b1111111111111111111111111111100 8
b1111111111111111111111111111100 @
b1111111111111111111111111111100 a
b1111111111111111111111111111100 g
b10111101111111111111110000 -
b10111101111111111111110000 B
b10111101111111111111110000 D
b1111111111111110000000000000000 *
b1111111111111110000000000000000 M
b1111111111111110000000000000000 d
b1111111111111110000000000000000 ~
b1111111111111110000000000000000 +
b1111111111111110000000000000000 ?
b1111111111111110000000000000000 }
b1 =
b1111111111111100 7
b1111111111111100 >
b1111111111111100 N
b10000000000000000101000 ,
b10000000000000000101000 G
b10000000000000000101000 s
b11101 w
b11111 $"
b1110 4
b1110 `
1X
1_
b1 W
b1111111111111100 %
b1111111111111100 L
b1111111111111100 P
b1111111111111100 '"
b10001000000000000011000 9
b10001000000000000011000 Q
b10001000000000000011000 T
b10000000000000000101000 5
b10000000000000000101000 U
b10000000000000000101000 q
b110111101111011111111111111100 1
b110111101111011111111111111100 E
b110111101111011111111111111100 V
b110111101111011111111111111100 n
b110111101111011111111111111100 &"
b10 0
b10 j
b10 o
b10 k
b10000000000000000101000 :
b10000000000000000101000 F
b10000000000000000101000 J
b10000000000000000101000 O
b10000000000000000101000 S
b10000000000000000101100 t
b10000000000000000100100 3
b10000000000000000100100 H
b10000000000000000100100 I
b10000000000000000100100 m
1<
#30
0<
#40
b1010 #
b1010 i
b1010 {
b100000000000000101000 ;
b100000000000000101000 C
b100000000000000101000 r
b1010 8
b1010 @
b1010 a
b1010 g
b100000000000000101000 -
b100000000000000101000 B
b100000000000000101000 D
b0 *
b0 M
b0 d
b0 ~
b0 +
b0 ?
b0 }
b100 "
b100 |
b100 %"
b1010 7
b1010 >
b1010 N
b10 =
b10000000000000000101100 ,
b10000000000000000101100 G
b10000000000000000101100 s
b100 x
b0 w
b0 $"
b100 #"
b1010 %
b1010 L
b1010 P
b1010 '"
b10110 4
b10110 `
1X
1_
b10 W
b10000000000000001010100 9
b10000000000000001010100 Q
b10000000000000001010100 T
b10000000000000000101100 5
b10000000000000000101100 U
b10000000000000000101100 q
b100100000001000000000000001010 1
b100100000001000000000000001010 E
b100100000001000000000000001010 V
b100100000001000000000000001010 n
b100100000001000000000000001010 &"
b11 0
b11 j
b11 o
b10000000000000000101100 :
b10000000000000000101100 F
b10000000000000000101100 J
b10000000000000000101100 O
b10000000000000000101100 S
b10000000000000000110000 t
b10000000000000000101000 3
b10000000000000000101000 H
b10000000000000000101000 I
b10000000000000000101000 m
b11 k
1<
#50
b1010 )
b1010 u
b1010 ("
0<
#60
b0 #
b0 i
b0 {
b10000000000000001001000 ;
b10000000000000001001000 C
b10000000000000001001000 r
1!
b0 8
b0 @
b0 a
b0 g
b10000000000000001001000 -
b10000000000000001001000 B
b10000000000000001001000 D
b10000 "
b10000 |
b10000 %"
b0 =
0K
1p
b0 7
b0 >
b0 N
b10000000000000001001000 ,
b10000000000000001001000 G
b10000000000000001001000 s
b10000 x
b10000 #"
b1000000100 4
b1000000100 `
1/
1Z
0X
1_
b0 W
b10010 %
b10010 L
b10010 P
b10010 '"
b10000000000000001111000 9
b10000000000000001111000 Q
b10000000000000001111000 T
b10000000000000000110000 5
b10000000000000000110000 U
b10000000000000000110000 q
b1100000100000000000000010010 1
b1100000100000000000000010010 E
b1100000100000000000000010010 V
b1100000100000000000000010010 n
b1100000100000000000000010010 &"
b100 0
b100 j
b100 o
b100 k
b10000000000000000110000 :
b10000000000000000110000 F
b10000000000000000110000 J
b10000000000000000110000 O
b10000000000000000110000 S
b10000000000000000110100 t
b10000000000000000101100 3
b10000000000000000101100 H
b10000000000000000101100 I
b10000000000000000101100 m
1<
#70
b10000000000000000110100 (
b10000000000000000110100 A
b10000000000000000110100 v
0<
#80
b1111111111111111111111111110000 #
b1111111111111111111111111110000 i
b1111111111111111111111111110000 {
b10111101111111111111010000 ;
b10111101111111111111010000 C
b10111101111111111111010000 r
0!
b1111111111111111111111111110000 8
b1111111111111111111111111110000 @
b1111111111111111111111111110000 a
b1111111111111111111111111110000 g
b10000000000000001001100 ,
b10000000000000001001100 G
b10000000000000001001100 s
b10111101111111111111010000 -
b10111101111111111111010000 B
b10111101111111111111010000 D
b1111111111111111111111111111100 *
b1111111111111111111111111111100 M
b1111111111111111111111111111100 d
b1111111111111111111111111111100 ~
b1111111111111111111111111111100 +
b1111111111111111111111111111100 ?
b1111111111111111111111111111100 }
b11101 "
b11101 |
b11101 %"
b11111111111111111111111111110100 7
b11111111111111111111111111110100 >
b11111111111111111111111111110100 N
b10 =
1K
0p
b11101 x
b11101 w
b11111 $"
b11101 #"
b11111111111111111111111111110100 %
b11111111111111111111111111110100 L
b11111111111111111111111111110100 P
b11111111111111111111111111110100 '"
b10110 4
b10110 `
1X
b10 W
0/
1_
0Z
b10000000000000000011100 9
b10000000000000000011100 Q
b10000000000000000011100 T
b10000000000000001001100 5
b10000000000000001001100 U
b10000000000000001001100 q
b100011101111011111111111110100 1
b100011101111011111111111110100 E
b100011101111011111111111110100 V
b100011101111011111111111110100 n
b100011101111011111111111110100 &"
b101 0
b101 j
b101 o
b10000000000000001001100 :
b10000000000000001001100 F
b10000000000000001001100 J
b10000000000000001001100 O
b10000000000000001001100 S
b10000000000000001010000 t
b10000000000000001001000 3
b10000000000000001001000 H
b10000000000000001001000 I
b10000000000000001001000 m
b101 k
1<
#90
0<
#100
b1111111111111111111111111111000 #
b1111111111111111111111111111000 i
b1111111111111111111111111111000 {
b10111111000000000000100000 ;
b10111111000000000000100000 C
b10111111000000000000100000 r
b1111111111111111111111111111000 8
b1111111111111111111111111111000 @
b1111111111111111111111111111000 a
b1111111111111111111111111111000 g
b10111111000000000000100000 -
b10111111000000000000100000 B
b10111111000000000000100000 D
b10000000000000000110100 *
b10000000000000000110100 M
b10000000000000000110100 d
b10000000000000000110100 ~
b1111111111111111111111111110000 +
b1111111111111111111111111110000 ?
b1111111111111111111111111110000 }
b11111 "
b11111 |
b11111 %"
1c
0y
b1000 7
b1000 >
b1000 N
b10000000000000001010000 ,
b10000000000000001010000 G
b10000000000000001010000 s
b11111 x
b0 $"
b11111 #"
b10011 4
b10011 `
1]
1X
0_
b10 W
b1000 %
b1000 L
b1000 P
b1000 '"
b10000000000000001110000 9
b10000000000000001110000 Q
b10000000000000001110000 T
b10000000000000001010000 5
b10000000000000001010000 U
b10000000000000001010000 q
b10101111101111110000000000001000 1
b10101111101111110000000000001000 E
b10101111101111110000000000001000 V
b10101111101111110000000000001000 n
b10101111101111110000000000001000 &"
b110 0
b110 j
b110 o
b110 k
b10000000000000001010000 :
b10000000000000001010000 F
b10000000000000001010000 J
b10000000000000001010000 O
b10000000000000001010000 S
b10000000000000001010100 t
b10000000000000001001100 3
b10000000000000001001100 H
b10000000000000001001100 I
b10000000000000001001100 m
1<
#110
0<
#120
b1111111111111111111111111110100 #
b1111111111111111111111111110100 i
b1111111111111111111111111110100 {
b10110000000000000000010000 ;
b10110000000000000000010000 C
b10110000000000000000010000 r
b1111111111111111111111111110100 8
b1111111111111111111111111110100 @
b1111111111111111111111111110100 a
b1111111111111111111111111110100 g
b10110000000000000000010000 -
b10110000000000000000010000 B
b10110000000000000000010000 D
b0 *
b0 M
b0 d
b0 ~
b10000 "
b10000 |
b10000 %"
b100 7
b100 >
b100 N
b10000000000000001010100 ,
b10000000000000001010100 G
b10000000000000001010100 s
b10000 x
b10000 #"
b100 %
b100 L
b100 P
b100 '"
1]
1X
b10 W
b10000000000000001100100 9
b10000000000000001100100 Q
b10000000000000001100100 T
b10000000000000001010100 5
b10000000000000001010100 U
b10000000000000001010100 q
b10101111101100000000000000000100 1
b10101111101100000000000000000100 E
b10101111101100000000000000000100 V
b10101111101100000000000000000100 n
b10101111101100000000000000000100 &"
b111 0
b111 j
b111 o
b10000000000000001010100 :
b10000000000000001010100 F
b10000000000000001010100 J
b10000000000000001010100 O
b10000000000000001010100 S
b10000000000000001011000 t
b10000000000000001010000 3
b10000000000000001010000 H
b10000000000000001010000 I
b10000000000000001010000 m
b111 k
1<
#130
0<
#140
b1111111111111111111111111110000 #
b1111111111111111111111111110000 i
b1111111111111111111111111110000 {
b10110001000000000000000000 ;
b10110001000000000000000000 C
b10110001000000000000000000 r
b1111111111111111111111111110000 8
b1111111111111111111111111110000 @
b1111111111111111111111111110000 a
b1111111111111111111111111110000 g
b10110001000000000000000000 -
b10110001000000000000000000 B
b10110001000000000000000000 D
b10001 "
b10001 |
b10001 %"
b0 7
b0 >
b0 N
b10000000000000001011000 ,
b10000000000000001011000 G
b10000000000000001011000 s
b10001 x
b10001 #"
1]
1X
b10 W
b0 %
b0 L
b0 P
b0 '"
b10000000000000001011000 9
b10000000000000001011000 Q
b10000000000000001011000 T
b10000000000000001011000 5
b10000000000000001011000 U
b10000000000000001011000 q
b10101111101100010000000000000000 1
b10101111101100010000000000000000 E
b10101111101100010000000000000000 V
b10101111101100010000000000000000 n
b10101111101100010000000000000000 &"
b1000 0
b1000 j
b1000 o
b1000 k
b10000000000000001011000 :
b10000000000000001011000 F
b10000000000000001011000 J
b10000000000000001011000 O
b10000000000000001011000 S
b10000000000000001011100 t
b10000000000000001010100 3
b10000000000000001010100 H
b10000000000000001010100 I
b10000000000000001010100 m
1<
#150
0<
#160
b1010 #
b1010 i
b1010 {
b10000000100000000010000000 ;
b10000000100000000010000000 C
b10000000100000000010000000 r
b1010 8
b1010 @
b1010 a
b1010 g
b10000000100000000010000000 -
b10000000100000000010000000 B
b10000000100000000010000000 D
b1010 +
b1010 ?
b1010 }
b10000 "
b10000 |
b10000 %"
0c
0K
1y
1""
b10000000000000001011100 ,
b10000000000000001011100 G
b10000000000000001011100 s
b0 x
b100 w
b10000 $"
b0 #"
b11111111111111111000000000100000 %
b11111111111111111000000000100000 L
b11111111111111111000000000100000 P
b11111111111111111000000000100000 '"
b10000010100 4
b10000010100 `
1_
1^
0]
0X
b10 W
b1111100000000011011100 9
b1111100000000011011100 Q
b1111100000000011011100 T
b10000000000000001011100 5
b10000000000000001011100 U
b10000000000000001011100 q
b100000001000000000100000 1
b100000001000000000100000 E
b100000001000000000100000 V
b100000001000000000100000 n
b100000001000000000100000 &"
b1001 0
b1001 j
b1001 o
b10000000000000001011100 :
b10000000000000001011100 F
b10000000000000001011100 J
b10000000000000001011100 O
b10000000000000001011100 S
b10000000000000001100000 t
b10000000000000001011000 3
b10000000000000001011000 H
b10000000000000001011000 I
b10000000000000001011000 m
b1001 k
1<
#170
0<
#180
b1 #
b1 i
b1 {
b10000000000000000100 ;
b10000000000000000100 C
b10000000000000000100 r
b1 8
b1 @
b1 a
b1 g
b1 7
b1 >
b1 N
b10000000000000000100 -
b10000000000000000100 B
b10000000000000000100 D
b0 +
b0 ?
b0 }
b10 "
b10 |
b10 %"
1K
0""
b10000000000000001100000 ,
b10000000000000001100000 G
b10000000000000001100000 s
b10 x
b0 w
b0 $"
b10 #"
b10110 4
b10110 `
1X
1_
b10 W
0^
b1 %
b1 L
b1 P
b1 '"
b10000000000000001100100 9
b10000000000000001100100 Q
b10000000000000001100100 T
b10000000000000001100000 5
b10000000000000001100000 U
b10000000000000001100000 q
b100100000000100000000000000001 1
b100100000000100000000000000001 E
b100100000000100000000000000001 V
b100100000000100000000000000001 n
b100100000000100000000000000001 &"
b1010 0
b1010 j
b1010 o
b1010 k
b10000000000000001100000 :
b10000000000000001100000 F
b10000000000000001100000 J
b10000000000000001100000 O
b10000000000000001100000 S
b10000000000000001100100 t
b10000000000000001011100 3
b10000000000000001011100 H
b10000000000000001011100 I
b10000000000000001011100 m
1<
#190
b1 '
b1 z
b1 )"
0<
#200
b11 #
b11 i
b11 {
b1010000000000000001100 ;
b1010000000000000001100 C
b1010000000000000001100 r
b11 8
b11 @
b11 a
b11 g
b1010000000000000001100 -
b1010000000000000001100 B
b1010000000000000001100 D
b1010 "
b1010 |
b1010 %"
b11 7
b11 >
b11 N
b10000000000000001100100 ,
b10000000000000001100100 G
b10000000000000001100100 s
b1010 x
b1010 #"
b11 %
b11 L
b11 P
b11 '"
1X
1_
b10 W
b10000000000000001110000 9
b10000000000000001110000 Q
b10000000000000001110000 T
b10000000000000001100100 5
b10000000000000001100100 U
b10000000000000001100100 q
b100100000010100000000000000011 1
b100100000010100000000000000011 E
b100100000010100000000000000011 V
b100100000010100000000000000011 n
b100100000010100000000000000011 &"
b1011 0
b1011 j
b1011 o
b10000000000000001100100 :
b10000000000000001100100 F
b10000000000000001100100 J
b10000000000000001100100 O
b10000000000000001100100 S
b10000000000000001101000 t
b10000000000000001100000 3
b10000000000000001100000 H
b10000000000000001100000 I
b10000000000000001100000 m
b1011 k
1<
#210
0<
#220
b1 #
b1 i
b1 {
b1011000000000000000100 ;
b1011000000000000000100 C
b1011000000000000000100 r
b1 8
b1 @
b1 a
b1 g
b1011000000000000000100 -
b1011000000000000000100 B
b1011000000000000000100 D
b1011 "
b1011 |
b1011 %"
b1 7
b1 >
b1 N
b10000000000000001101000 ,
b10000000000000001101000 G
b10000000000000001101000 s
b1011 x
b1011 #"
1X
1_
b10 W
b1 %
b1 L
b1 P
b1 '"
b10000000000000001101100 9
b10000000000000001101100 Q
b10000000000000001101100 T
b10000000000000001101000 5
b10000000000000001101000 U
b10000000000000001101000 q
b100100000010110000000000000001 1
b100100000010110000000000000001 E
b100100000010110000000000000001 V
b100100000010110000000000000001 n
b100100000010110000000000000001 &"
b1100 0
b1100 j
b1100 o
b1100 k
b10000000000000001101000 :
b10000000000000001101000 F
b10000000000000001101000 J
b10000000000000001101000 O
b10000000000000001101000 S
b10000000000000001101100 t
b10000000000000001100100 3
b10000000000000001100100 H
b10000000000000001100100 I
b10000000000000001100100 m
1<
#230
0<
#240
b0 #
b0 i
b0 {
b1010011000000010101000 ;
b1010011000000010101000 C
b1010011000000010101000 r
1!
b0 8
b0 @
b0 a
b0 g
b1010011000000010101000 -
b1010011000000010101000 B
b1010011000000010101000 D
b11 *
b11 M
b11 d
b11 ~
b1010 +
b1010 ?
b1010 }
b1100 "
b1100 |
b1100 %"
b11 7
b11 >
b11 N
b111 =
0K
1""
b10000000000000001101100 ,
b10000000000000001101100 G
b10000000000000001101100 s
b1010 x
b10000 w
b1100 $"
b1010 #"
b110000000101010 %
b110000000101010 L
b110000000101010 P
b110000000101010 '"
b10000111100 4
b10000111100 `
1^
0X
1_
b111 W
b10000011000000100010100 9
b10000011000000100010100 Q
b10000011000000100010100 T
b10000000000000001101100 5
b10000000000000001101100 U
b10000000000000001101100 q
b10000010100110000000101010 1
b10000010100110000000101010 E
b10000010100110000000101010 V
b10000010100110000000101010 n
b10000010100110000000101010 &"
b1101 0
b1101 j
b1101 o
b10000000000000001101100 :
b10000000000000001101100 F
b10000000000000001101100 J
b10000000000000001101100 O
b10000000000000001101100 S
b10000000000000001110000 t
b10000000000000001101000 3
b10000000000000001101000 H
b10000000000000001101000 I
b10000000000000001101000 m
b1101 k
1<
#250
0<
#260
b11111111111111111111111111111111 #
b11111111111111111111111111111111 i
b11111111111111111111111111111111 {
b10001011000000000000101000 ;
b10001011000000000000101000 C
b10001011000000000000101000 r
b1 7
b1 >
b1 N
0!
b11111111111111111111111111111111 8
b11111111111111111111111111111111 @
b11111111111111111111111111111111 a
b11111111111111111111111111111111 g
06
b10001011000000000000101000 -
b10001011000000000000101000 B
b10001011000000000000101000 D
b1 *
b1 M
b1 d
b1 ~
b0 +
b0 ?
b0 }
b1011 "
b1011 |
b1011 %"
b110 =
1R
0y
0""
b10000000000000001110000 ,
b10000000000000001110000 G
b10000000000000001110000 s
b1011 x
b1100 w
b0 $"
b1011 #"
b100110000 4
b100110000 `
1Y
0_
b110 W
0^
b1010 %
b1010 L
b1010 P
b1010 '"
b10000000000000010011000 9
b10000000000000010011000 Q
b10000000000000010011000 T
b10000000000000001110000 5
b10000000000000001110000 U
b10000000000000001110000 q
b10001100010110000000000001010 1
b10001100010110000000000001010 E
b10001100010110000000000001010 V
b10001100010110000000000001010 n
b10001100010110000000000001010 &"
b1110 0
b1110 j
b1110 o
b1110 k
b10000000000000001110000 :
b10000000000000001110000 F
b10000000000000001110000 J
b10000000000000001110000 O
b10000000000000001110000 S
b10000000000000001110100 t
b10000000000000001101100 3
b10000000000000001101100 H
b10000000000000001101100 I
b10000000000000001101100 m
1<
#270
0<
#280
b0 #
b0 i
b0 {
b0 ;
b0 C
b0 r
b0 7
b0 >
b0 N
1!
b0 8
b0 @
b0 a
b0 g
b0 -
b0 B
b0 D
b0 *
b0 M
b0 d
b0 ~
b0 "
b0 |
b0 %"
b0 =
0R
1y
1""
b10000000000000001110100 ,
b10000000000000001110100 G
b10000000000000001110100 s
b0 x
b0 w
b0 #"
b0 %
b0 L
b0 P
b0 '"
b10000000100 4
b10000000100 `
1_
1^
b0 W
0Y
b10000000000000001110100 9
b10000000000000001110100 Q
b10000000000000001110100 T
b10000000000000001110100 5
b10000000000000001110100 U
b10000000000000001110100 q
b0 1
b0 E
b0 V
b0 n
b0 &"
b1111 0
b1111 j
b1111 o
b10000000000000001110100 :
b10000000000000001110100 F
b10000000000000001110100 J
b10000000000000001110100 O
b10000000000000001110100 S
b10000000000000001111000 t
b10000000000000001110000 3
b10000000000000001110000 H
b10000000000000001110000 I
b10000000000000001110000 m
b1111 k
1<
#290
0<
#300
b10000000000000001111000 ,
b10000000000000001111000 G
b10000000000000001111000 s
b10000000000000001111000 9
b10000000000000001111000 Q
b10000000000000001111000 T
b10000000000000001111000 5
b10000000000000001111000 U
b10000000000000001111000 q
b10000 0
b10000 j
b10000 o
b10000 k
b10000000000000001111000 :
b10000000000000001111000 F
b10000000000000001111000 J
b10000000000000001111000 O
b10000000000000001111000 S
b10000000000000001111100 t
b10000000000000001110100 3
b10000000000000001110100 H
b10000000000000001110100 I
b10000000000000001110100 m
1<
#310
0<
#320
b1001 #
b1001 i
b1001 {
b100111111111111111100 ;
b100111111111111111100 C
b100111111111111111100 r
0!
b1001 8
b1001 @
b1001 a
b1001 g
b11111111111111111111111111111111 7
b11111111111111111111111111111111 >
b11111111111111111111111111111111 N
b100111111111111111100 -
b100111111111111111100 B
b100111111111111111100 D
b1010 *
b1010 M
b1010 d
b1010 ~
b1010 +
b1010 ?
b1010 }
b100 "
b100 |
b100 %"
b10 =
1K
0""
b10000000000000001111100 ,
b10000000000000001111100 G
b10000000000000001111100 s
b100 x
b10000 w
b11111 $"
b100 #"
b10110 4
b10110 `
1X
b10 W
1_
0^
b11111111111111111111111111111111 %
b11111111111111111111111111111111 L
b11111111111111111111111111111111 P
b11111111111111111111111111111111 '"
b10000000000000001111000 9
b10000000000000001111000 Q
b10000000000000001111000 T
b10000000000000001111100 5
b10000000000000001111100 U
b10000000000000001111100 q
b100010000001001111111111111111 1
b100010000001001111111111111111 E
b100010000001001111111111111111 V
b100010000001001111111111111111 n
b100010000001001111111111111111 &"
b10001 0
b10001 j
b10001 o
b10000000000000001111100 :
b10000000000000001111100 F
b10000000000000001111100 J
b10000000000000001111100 O
b10000000000000001111100 S
b10000000000000010000000 t
b10000000000000001111000 3
b10000000000000001111000 H
b10000000000000001111000 I
b10000000000000001111000 m
b10001 k
1<
#330
b1001 )
b1001 u
b1001 ("
0<
#340
b0 #
b0 i
b0 {
b10000000000000001001000 ;
b10000000000000001001000 C
b10000000000000001001000 r
1!
b0 8
b0 @
b0 a
b0 g
b10000000000000001001000 -
b10000000000000001001000 B
b10000000000000001001000 D
b0 +
b0 ?
b0 }
b10000 "
b10000 |
b10000 %"
b1010 7
b1010 >
b1010 N
b0 =
0K
1p
b10000000000000001001000 ,
b10000000000000001001000 G
b10000000000000001001000 s
b10000 x
b0 w
b0 $"
b10000 #"
b10010 %
b10010 L
b10010 P
b10010 '"
b1000000100 4
b1000000100 `
1/
1Z
0X
1_
b0 W
b10000000000000011001000 9
b10000000000000011001000 Q
b10000000000000011001000 T
b10000000000000010000000 5
b10000000000000010000000 U
b10000000000000010000000 q
b1100000100000000000000010010 1
b1100000100000000000000010010 E
b1100000100000000000000010010 V
b1100000100000000000000010010 n
b1100000100000000000000010010 &"
b10010 0
b10010 j
b10010 o
b10010 k
b10000000000000010000000 :
b10000000000000010000000 F
b10000000000000010000000 J
b10000000000000010000000 O
b10000000000000010000000 S
b10000000000000010000100 t
b10000000000000001111100 3
b10000000000000001111100 H
b10000000000000001111100 I
b10000000000000001111100 m
1<
#350
b10000000000000010000100 (
b10000000000000010000100 A
b10000000000000010000100 v
0<
#360
b1111111111111111111111111100100 #
b1111111111111111111111111100100 i
b1111111111111111111111111100100 {
b10111101111111111111010000 ;
b10111101111111111111010000 C
b10111101111111111111010000 r
0!
b1111111111111111111111111100100 8
b1111111111111111111111111100100 @
b1111111111111111111111111100100 a
b1111111111111111111111111100100 g
b11111111111111111111111111110100 7
b11111111111111111111111111110100 >
b11111111111111111111111111110100 N
b10000000000000001001100 ,
b10000000000000001001100 G
b10000000000000001001100 s
b10111101111111111111010000 -
b10111101111111111111010000 B
b10111101111111111111010000 D
b1111111111111111111111111110000 *
b1111111111111111111111111110000 M
b1111111111111111111111111110000 d
b1111111111111111111111111110000 ~
b1111111111111111111111111110000 +
b1111111111111111111111111110000 ?
b1111111111111111111111111110000 }
b11101 "
b11101 |
b11101 %"
b10 =
1K
0p
b11101 x
b11101 w
b11111 $"
b11101 #"
b10110 4
b10110 `
1X
b10 W
0/
1_
0Z
b11111111111111111111111111110100 %
b11111111111111111111111111110100 L
b11111111111111111111111111110100 P
b11111111111111111111111111110100 '"
b10000000000000000011100 9
b10000000000000000011100 Q
b10000000000000000011100 T
b10000000000000001001100 5
b10000000000000001001100 U
b10000000000000001001100 q
b100011101111011111111111110100 1
b100011101111011111111111110100 E
b100011101111011111111111110100 V
b100011101111011111111111110100 n
b100011101111011111111111110100 &"
b10011 0
b10011 j
b10011 o
b10000000000000001001100 :
b10000000000000001001100 F
b10000000000000001001100 J
b10000000000000001001100 O
b10000000000000001001100 S
b10000000000000001010000 t
b10000000000000001001000 3
b10000000000000001001000 H
b10000000000000001001000 I
b10000000000000001001000 m
b10011 k
1<
#370
0<
