modules/testbench.vcd
$date
	Thu Feb 15 21:47:11 2018
$end
$version
	Icarus Verilog
$end
$timescale
	1s
$end
$scope module testbench $end
$var wire 1 ! zero $end
$var wire 5 " writeReg [4:0] $end
$var wire 32 # writeData [31:0] $end
$var wire 1 $ syscall_control $end
$var wire 32 % signExtendedValue [31:0] $end
$var wire 32 & regV0 [31:0] $end
$var wire 32 ' regRA [31:0] $end
$var wire 32 ( regA0 [31:0] $end
$var wire 32 ) readData2 [31:0] $end
$var wire 32 * readData1 [31:0] $end
$var wire 32 + nextPC [31:0] $end
$var wire 32 , jumpAddr [31:0] $end
$var wire 1 - isJR $end
$var wire 1 . isJAL $end
$var wire 32 / instr [31:0] $end
$var wire 32 0 dataMemRead [31:0] $end
$var wire 32 1 currPC [31:0] $end
$var wire 11 2 controlSignals [10:0] $end
$var wire 32 3 branchMuxResult [31:0] $end
$var wire 1 4 andResult $end
$var wire 32 5 aluMuxOut [31:0] $end
$var wire 32 6 aluAddress [31:0] $end
$var wire 32 7 adderResult [31:0] $end
$var wire 32 8 PCplus4 [31:0] $end
$var wire 32 9 JRmuxOut [31:0] $end
$var reg 1 : clk $end
$scope module ALU_block $end
$var wire 3 ; aluOp [2:0] $end
$var wire 32 < data2 [31:0] $end
$var wire 32 = data1 [31:0] $end
$var reg 32 > address [31:0] $end
$var reg 1 ! zero $end
$upscope $end
$scope module JRmux $end
$var wire 32 ? input1 [31:0] $end
$var wire 32 @ input0 [31:0] $end
$var wire 1 - controlSignal $end
$var reg 32 A muxOut [31:0] $end
$upscope $end
$scope module JumpAddr_block $end
$var wire 32 B jumpAddr [31:0] $end
$var wire 32 C instr [31:0] $end
$var wire 32 D PCplus4 [31:0] $end
$upscope $end
$scope module PC_block $end
$var wire 1 : clk $end
$var wire 32 E nextPC [31:0] $end
$var reg 32 F currPC [31:0] $end
$upscope $end
$scope module PCadd4 $end
$var wire 32 G currPC [31:0] $end
$var wire 32 H PCplus4 [31:0] $end
$upscope $end
$scope module aluMux $end
$var wire 1 I controlSignal $end
$var wire 32 J input1 [31:0] $end
$var wire 32 K input0 [31:0] $end
$var reg 32 L muxOut [31:0] $end
$upscope $end
$scope module branchAdder $end
$var wire 32 M pcPlus4 [31:0] $end
$var wire 32 N signedImmediate [31:0] $end
$var reg 32 O adderResult [31:0] $end
$upscope $end
$scope module branchAnd $end
$var wire 1 P branch $end
$var wire 1 ! zero $end
$var reg 1 4 andResult $end
$upscope $end
$scope module branchMux $end
$var wire 1 4 controlSignal $end
$var wire 32 Q input0 [31:0] $end
$var wire 32 R input1 [31:0] $end
$var reg 32 S muxOut [31:0] $end
$upscope $end
$scope module control_block $end
$var wire 32 T instr [31:0] $end
$var reg 3 U ALUop [2:0] $end
$var reg 1 V ALUsrc $end
$var reg 1 W branch $end
$var reg 1 . isJAL $end
$var reg 1 - isJR $end
$var reg 1 X jump $end
$var reg 1 Y memRead $end
$var reg 1 Z memToReg $end
$var reg 1 [ memWrite $end
$var reg 1 \ regDst $end
$var reg 1 ] regWrite $end
$var reg 11 ^ signals [10:0] $end
$var reg 1 $ syscall $end
$upscope $end
$scope module dataMem $end
$var wire 32 _ address [31:0] $end
$var wire 1 : clk $end
$var wire 1 ` memRead $end
$var wire 1 a memWrite $end
$var wire 32 b writeData [31:0] $end
$var reg 32 c readData [31:0] $end
$upscope $end
$scope module dataMemMux $end
$var wire 1 d controlSignal $end
$var wire 32 e input0 [31:0] $end
$var wire 32 f input1 [31:0] $end
$var reg 32 g muxOut [31:0] $end
$upscope $end
$scope module instructionMemory $end
$var wire 32 h currPC [31:0] $end
$var reg 32 i instr [31:0] $end
$upscope $end
$scope module jumpMux $end
$var wire 1 j controlSignal $end
$var wire 32 k input0 [31:0] $end
$var wire 32 l input1 [31:0] $end
$var reg 32 m muxOut [31:0] $end
$upscope $end
$scope module reg_block $end
$var wire 32 n JALaddress [31:0] $end
$var wire 32 o a0 [31:0] $end
$var wire 1 : clk $end
$var wire 1 . isJAL $end
$var wire 32 p ra [31:0] $end
$var wire 5 q readReg1 [4:0] $end
$var wire 5 r readReg2 [4:0] $end
$var wire 1 s regWrite $end
$var wire 32 t v0 [31:0] $end
$var wire 32 u writeData [31:0] $end
$var wire 5 v writeReg [4:0] $end
$var reg 32 w readOut1 [31:0] $end
$var reg 32 x readOut2 [31:0] $end
$var integer 32 y i [31:0] $end
$upscope $end
$scope module registerMux $end
$var wire 1 z controlSignal $end
$var wire 5 { input0 [4:0] $end
$var wire 5 | input1 [4:0] $end
$var reg 5 } muxOut [4:0] $end
$upscope $end
$scope module signExtend_block $end
$var wire 32 ~ instr [31:0] $end
$var reg 32 !" extendedImmediate [31:0] $end
$upscope $end
$scope module testSyscall $end
$var wire 32 "" a [31:0] $end
$var wire 1 $ syscall $end
$var wire 32 #" v [31:0] $end
$upscope $end
$upscope $end
$enddefinitions $end
#0
$dumpvars
b0 #"
b0 ""
b111111111111111 !"
b111100000111010111111111111111 ~
b11101 }
b1111 |
b11101 {
0z
b100000 y
b0 x
b0 w
b11101 v
b1111111111111110000000000000000 u
b0 t
1s
b11101 r
b0 q
b0 p
b0 o
b10000000000000000101000 n
b10000000000000000100100 m
b11101011111111111111100 l
b10000000000000000100100 k
0j
b111100000111010111111111111111 i
b10000000000000000100000 h
b1111111111111110000000000000000 g
bx f
b1111111111111110000000000000000 e
0d
bx c
b0 b
0a
0`
b1111111111111110000000000000000 _
b11110 ^
1]
0\
0[
0Z
0Y
0X
0W
1V
b11 U
b111100000111010111111111111111 T
b10000000000000000100100 S
b10000100000000000100000 R
b10000000000000000100100 Q
0P
b10000100000000000100000 O
b111111111111111 N
b10000000000000000100100 M
b111111111111111 L
b0 K
b111111111111111 J
1I
b10000000000000000100100 H
b10000000000000000100000 G
b10000000000000000100000 F
b10000000000000000100100 E
b10000000000000000100100 D
b111100000111010111111111111111 C
b11101011111111111111100 B
b11101011111111111111100 A
b11101011111111111111100 @
b0 ?
b1111111111111110000000000000000 >
b0 =
b111111111111111 <
b11 ;
1:
b11101011111111111111100 9
b10000000000000000100100 8
b10000100000000000100000 7
b1111111111111110000000000000000 6
b111111111111111 5
04
b10000000000000000100100 3
b11110 2
b10000000000000000100000 1
bx 0
b111100000111010111111111111111 /
0.
0-
b11101011111111111111100 ,
b10000000000000000100100 +
b0 *
b0 )
b0 (
b0 '
b0 &
b111111111111111 %
0$
b1111111111111110000000000000000 #
b11101 "
0!
$end
#10
0:
#20
b1111111111111111111111111111100 #
b1111111111111111111111111111100 g
b1111111111111111111111111111100 u
b10111101111111111111110000 9
b10111101111111111111110000 A
b10111101111111111111110000 l
b1111111111111111111111111111100 6
b1111111111111111111111111111100 >
b1111111111111111111111111111100 _
b1111111111111111111111111111100 e
b10111101111111111111110000 ,
b10111101111111111111110000 @
b10111101111111111111110000 B
b1111111111111110000000000000000 )
b1111111111111110000000000000000 K
b1111111111111110000000000000000 b
b1111111111111110000000000000000 x
b1111111111111110000000000000000 *
b1111111111111110000000000000000 =
b1111111111111110000000000000000 w
b1 ;
b1111111111111100 5
b1111111111111100 <
b1111111111111100 L
b10000000000000000101000 +
b10000000000000000101000 E
b10000000000000000101000 m
b11101 q
b11111 |
b1110 2
b1110 ^
1V
1]
b1 U
b1111111111111100 %
b1111111111111100 J
b1111111111111100 N
b1111111111111100 !"
b10001000000000000011000 7
b10001000000000000011000 O
b10001000000000000011000 R
b10000000000000000101000 3
b10000000000000000101000 S
b10000000000000000101000 k
b110111101111011111111111111100 /
b110111101111011111111111111100 C
b110111101111011111111111111100 T
b110111101111011111111111111100 i
b110111101111011111111111111100 ~
b10000000000000000101000 8
b10000000000000000101000 D
b10000000000000000101000 H
b10000000000000000101000 M
b10000000000000000101000 Q
b10000000000000000101100 n
b10000000000000000100100 1
b10000000000000000100100 F
b10000000000000000100100 G
b10000000000000000100100 h
1:
#30
0:
#40
b1010 #
b1010 g
b1010 u
b100000000000000101000 9
b100000000000000101000 A
b100000000000000101000 l
b1010 6
b1010 >
b1010 _
b1010 e
b100000000000000101000 ,
b100000000000000101000 @
b100000000000000101000 B
b0 )
b0 K
b0 b
b0 x
b0 *
b0 =
b0 w
b100 "
b100 v
b100 }
b1010 5
b1010 <
b1010 L
b10 ;
b10000000000000000101100 +
b10000000000000000101100 E
b10000000000000000101100 m
b100 r
b0 q
b0 |
b100 {
b1010 %
b1010 J
b1010 N
b1010 !"
b10110 2
b10110 ^
1V
1]
b10 U
b10000000000000001010100 7
b10000000000000001010100 O
b10000000000000001010100 R
b10000000000000000101100 3
b10000000000000000101100 S
b10000000000000000101100 k
b100100000001000000000000001010 /
b100100000001000000000000001010 C
b100100000001000000000000001010 T
b100100000001000000000000001010 i
b100100000001000000000000001010 ~
b10000000000000000101100 8
b10000000000000000101100 D
b10000000000000000101100 H
b10000000000000000101100 M
b10000000000000000101100 Q
b10000000000000000110000 n
b10000000000000000101000 1
b10000000000000000101000 F
b10000000000000000101000 G
b10000000000000000101000 h
1:
#50
b1010 (
b1010 o
b1010 ""
0:
#60
b0 #
b0 g
b0 u
b10000000000000001001000 9
b10000000000000001001000 A
b10000000000000001001000 l
1!
b0 6
b0 >
b0 _
b0 e
b10000000000000001001000 ,
b10000000000000001001000 @
b10000000000000001001000 B
b10000 "
b10000 v
b10000 }
b0 ;
0I
1j
b0 5
b0 <
b0 L
b10000000000000001001000 +
b10000000000000001001000 E
b10000000000000001001000 m
b10000 r
b10000 {
b1000000100 2
b1000000100 ^
1.
1X
0V
1]
b0 U
b10010 %
b10010 J
b10010 N
b10010 !"
b10000000000000001111000 7
b10000000000000001111000 O
b10000000000000001111000 R
b10000000000000000110000 3
b10000000000000000110000 S
b10000000000000000110000 k
b1100000100000000000000010010 /
b1100000100000000000000010010 C
b1100000100000000000000010010 T
b1100000100000000000000010010 i
b1100000100000000000000010010 ~
b10000000000000000110000 8
b10000000000000000110000 D
b10000000000000000110000 H
b10000000000000000110000 M
b10000000000000000110000 Q
b10000000000000000110100 n
b10000000000000000101100 1
b10000000000000000101100 F
b10000000000000000101100 G
b10000000000000000101100 h
1:
#70
b10000000000000000110100 '
b10000000000000000110100 ?
b10000000000000000110100 p
0:
#80
b1111111111111111111111111110000 #
b1111111111111111111111111110000 g
b1111111111111111111111111110000 u
b10111101111111111111010000 9
b10111101111111111111010000 A
b10111101111111111111010000 l
0!
b1111111111111111111111111110000 6
b1111111111111111111111111110000 >
b1111111111111111111111111110000 _
b1111111111111111111111111110000 e
b10000000000000001001100 +
b10000000000000001001100 E
b10000000000000001001100 m
b10111101111111111111010000 ,
b10111101111111111111010000 @
b10111101111111111111010000 B
b1111111111111111111111111111100 )
b1111111111111111111111111111100 K
b1111111111111111111111111111100 b
b1111111111111111111111111111100 x
b1111111111111111111111111111100 *
b1111111111111111111111111111100 =
b1111111111111111111111111111100 w
b11101 "
b11101 v
b11101 }
b11111111111111111111111111110100 5
b11111111111111111111111111110100 <
b11111111111111111111111111110100 L
b10 ;
1I
0j
b11101 r
b11101 q
b11111 |
b11101 {
b11111111111111111111111111110100 %
b11111111111111111111111111110100 J
b11111111111111111111111111110100 N
b11111111111111111111111111110100 !"
b10110 2
b10110 ^
1V
b10 U
0.
1]
0X
b10000000000000000011100 7
b10000000000000000011100 O
b10000000000000000011100 R
b10000000000000001001100 3
b10000000000000001001100 S
b10000000000000001001100 k
b100011101111011111111111110100 /
b100011101111011111111111110100 C
b100011101111011111111111110100 T
b100011101111011111111111110100 i
b100011101111011111111111110100 ~
b10000000000000001001100 8
b10000000000000001001100 D
b10000000000000001001100 H
b10000000000000001001100 M
b10000000000000001001100 Q
b10000000000000001010000 n
b10000000000000001001000 1
b10000000000000001001000 F
b10000000000000001001000 G
b10000000000000001001000 h
1:
#90
0:
#100
b1111111111111111111111111111000 #
b1111111111111111111111111111000 g
b1111111111111111111111111111000 u
b10111111000000000000100000 9
b10111111000000000000100000 A
b10111111000000000000100000 l
b1111111111111111111111111111000 6
b1111111111111111111111111111000 >
b1111111111111111111111111111000 _
b1111111111111111111111111111000 e
b10111111000000000000100000 ,
b10111111000000000000100000 @
b10111111000000000000100000 B
b10000000000000000110100 )
b10000000000000000110100 K
b10000000000000000110100 b
b10000000000000000110100 x
b1111111111111111111111111110000 *
b1111111111111111111111111110000 =
b1111111111111111111111111110000 w
b11111 "
b11111 v
b11111 }
1a
0s
b1000 5
b1000 <
b1000 L
b10000000000000001010000 +
b10000000000000001010000 E
b10000000000000001010000 m
b11111 r
b0 |
b11111 {
b10011 2
b10011 ^
1[
1V
0]
b10 U
b1000 %
b1000 J
b1000 N
b1000 !"
b10000000000000001110000 7
b10000000000000001110000 O
b10000000000000001110000 R
b10000000000000001010000 3
b10000000000000001010000 S
b10000000000000001010000 k
b10101111101111110000000000001000 /
b10101111101111110000000000001000 C
b10101111101111110000000000001000 T
b10101111101111110000000000001000 i
b10101111101111110000000000001000 ~
b10000000000000001010000 8
b10000000000000001010000 D
b10000000000000001010000 H
b10000000000000001010000 M
b10000000000000001010000 Q
b10000000000000001010100 n
b10000000000000001001100 1
b10000000000000001001100 F
b10000000000000001001100 G
b10000000000000001001100 h
1:
#110
0:
#120
b1111111111111111111111111110100 #
b1111111111111111111111111110100 g
b1111111111111111111111111110100 u
b10110000000000000000010000 9
b10110000000000000000010000 A
b10110000000000000000010000 l
b1111111111111111111111111110100 6
b1111111111111111111111111110100 >
b1111111111111111111111111110100 _
b1111111111111111111111111110100 e
b10110000000000000000010000 ,
b10110000000000000000010000 @
b10110000000000000000010000 B
b0 )
b0 K
b0 b
b0 x
b10000 "
b10000 v
b10000 }
b100 5
b100 <
b100 L
b10000000000000001010100 +
b10000000000000001010100 E
b10000000000000001010100 m
b10000 r
b10000 {
b100 %
b100 J
b100 N
b100 !"
1[
1V
b10 U
b10000000000000001100100 7
b10000000000000001100100 O
b10000000000000001100100 R
b10000000000000001010100 3
b10000000000000001010100 S
b10000000000000001010100 k
b10101111101100000000000000000100 /
b10101111101100000000000000000100 C
b10101111101100000000000000000100 T
b10101111101100000000000000000100 i
b10101111101100000000000000000100 ~
b10000000000000001010100 8
b10000000000000001010100 D
b10000000000000001010100 H
b10000000000000001010100 M
b10000000000000001010100 Q
b10000000000000001011000 n
b10000000000000001010000 1
b10000000000000001010000 F
b10000000000000001010000 G
b10000000000000001010000 h
1:
#130
0:
#140
b1111111111111111111111111110000 #
b1111111111111111111111111110000 g
b1111111111111111111111111110000 u
b10110001000000000000000000 9
b10110001000000000000000000 A
b10110001000000000000000000 l
b1111111111111111111111111110000 6
b1111111111111111111111111110000 >
b1111111111111111111111111110000 _
b1111111111111111111111111110000 e
b10110001000000000000000000 ,
b10110001000000000000000000 @
b10110001000000000000000000 B
b10001 "
b10001 v
b10001 }
b0 5
b0 <
b0 L
b10000000000000001011000 +
b10000000000000001011000 E
b10000000000000001011000 m
b10001 r
b10001 {
1[
1V
b10 U
b0 %
b0 J
b0 N
b0 !"
b10000000000000001011000 7
b10000000000000001011000 O
b10000000000000001011000 R
b10000000000000001011000 3
b10000000000000001011000 S
b10000000000000001011000 k
b10101111101100010000000000000000 /
b10101111101100010000000000000000 C
b10101111101100010000000000000000 T
b10101111101100010000000000000000 i
b10101111101100010000000000000000 ~
b10000000000000001011000 8
b10000000000000001011000 D
b10000000000000001011000 H
b10000000000000001011000 M
b10000000000000001011000 Q
b10000000000000001011100 n
b10000000000000001010100 1
b10000000000000001010100 F
b10000000000000001010100 G
b10000000000000001010100 h
1:
#150
0:
#160
b1010 #
b1010 g
b1010 u
b10000000100000000010000000 9
b10000000100000000010000000 A
b10000000100000000010000000 l
b1010 6
b1010 >
b1010 _
b1010 e
b10000000100000000010000000 ,
b10000000100000000010000000 @
b10000000100000000010000000 B
b1010 *
b1010 =
b1010 w
b10000 "
b10000 v
b10000 }
0a
0I
1s
1z
b10000000000000001011100 +
b10000000000000001011100 E
b10000000000000001011100 m
b0 r
b100 q
b10000 |
b0 {
b11111111111111111000000000100000 %
b11111111111111111000000000100000 J
b11111111111111111000000000100000 N
b11111111111111111000000000100000 !"
b10000010100 2
b10000010100 ^
1]
1\
0[
0V
b10 U
b1111100000000011011100 7
b1111100000000011011100 O
b1111100000000011011100 R
b10000000000000001011100 3
b10000000000000001011100 S
b10000000000000001011100 k
b100000001000000000100000 /
b100000001000000000100000 C
b100000001000000000100000 T
b100000001000000000100000 i
b100000001000000000100000 ~
b10000000000000001011100 8
b10000000000000001011100 D
b10000000000000001011100 H
b10000000000000001011100 M
b10000000000000001011100 Q
b10000000000000001100000 n
b10000000000000001011000 1
b10000000000000001011000 F
b10000000000000001011000 G
b10000000000000001011000 h
1:
#170
0:
#180
b1 #
b1 g
b1 u
b10000000000000000100 9
b10000000000000000100 A
b10000000000000000100 l
b1 6
b1 >
b1 _
b1 e
b1 5
b1 <
b1 L
b10000000000000000100 ,
b10000000000000000100 @
b10000000000000000100 B
b0 *
b0 =
b0 w
b10 "
b10 v
b10 }
1I
0z
b10000000000000001100000 +
b10000000000000001100000 E
b10000000000000001100000 m
b10 r
b0 q
b0 |
b10 {
b10110 2
b10110 ^
1V
1]
b10 U
0\
b1 %
b1 J
b1 N
b1 !"
b10000000000000001100100 7
b10000000000000001100100 O
b10000000000000001100100 R
b10000000000000001100000 3
b10000000000000001100000 S
b10000000000000001100000 k
b100100000000100000000000000001 /
b100100000000100000000000000001 C
b100100000000100000000000000001 T
b100100000000100000000000000001 i
b100100000000100000000000000001 ~
b10000000000000001100000 8
b10000000000000001100000 D
b10000000000000001100000 H
b10000000000000001100000 M
b10000000000000001100000 Q
b10000000000000001100100 n
b10000000000000001011100 1
b10000000000000001011100 F
b10000000000000001011100 G
b10000000000000001011100 h
1:
#190
b1 &
b1 t
b1 #"
0:
#200
b11 #
b11 g
b11 u
b1010000000000000001100 9
b1010000000000000001100 A
b1010000000000000001100 l
b11 6
b11 >
b11 _
b11 e
b1010000000000000001100 ,
b1010000000000000001100 @
b1010000000000000001100 B
b1010 "
b1010 v
b1010 }
b11 5
b11 <
b11 L
b10000000000000001100100 +
b10000000000000001100100 E
b10000000000000001100100 m
b1010 r
b1010 {
b11 %
b11 J
b11 N
b11 !"
1V
1]
b10 U
b10000000000000001110000 7
b10000000000000001110000 O
b10000000000000001110000 R
b10000000000000001100100 3
b10000000000000001100100 S
b10000000000000001100100 k
b100100000010100000000000000011 /
b100100000010100000000000000011 C
b100100000010100000000000000011 T
b100100000010100000000000000011 i
b100100000010100000000000000011 ~
b10000000000000001100100 8
b10000000000000001100100 D
b10000000000000001100100 H
b10000000000000001100100 M
b10000000000000001100100 Q
b10000000000000001101000 n
b10000000000000001100000 1
b10000000000000001100000 F
b10000000000000001100000 G
b10000000000000001100000 h
1:
#210
0:
#220
b1 #
b1 g
b1 u
b1011000000000000000100 9
b1011000000000000000100 A
b1011000000000000000100 l
b1 6
b1 >
b1 _
b1 e
b1011000000000000000100 ,
b1011000000000000000100 @
b1011000000000000000100 B
b1011 "
b1011 v
b1011 }
b1 5
b1 <
b1 L
b10000000000000001101000 +
b10000000000000001101000 E
b10000000000000001101000 m
b1011 r
b1011 {
1V
1]
b10 U
b1 %
b1 J
b1 N
b1 !"
b10000000000000001101100 7
b10000000000000001101100 O
b10000000000000001101100 R
b10000000000000001101000 3
b10000000000000001101000 S
b10000000000000001101000 k
b100100000010110000000000000001 /
b100100000010110000000000000001 C
b100100000010110000000000000001 T
b100100000010110000000000000001 i
b100100000010110000000000000001 ~
b10000000000000001101000 8
b10000000000000001101000 D
b10000000000000001101000 H
b10000000000000001101000 M
b10000000000000001101000 Q
b10000000000000001101100 n
b10000000000000001100100 1
b10000000000000001100100 F
b10000000000000001100100 G
b10000000000000001100100 h
1:
#230
0:
#240
b0 #
b0 g
b0 u
b1010011000000010101000 9
b1010011000000010101000 A
b1010011000000010101000 l
1!
b0 6
b0 >
b0 _
b0 e
b1010011000000010101000 ,
b1010011000000010101000 @
b1010011000000010101000 B
b11 )
b11 K
b11 b
b11 x
b1010 *
b1010 =
b1010 w
b1100 "
b1100 v
b1100 }
b11 5
b11 <
b11 L
b111 ;
0I
1z
b10000000000000001101100 +
b10000000000000001101100 E
b10000000000000001101100 m
b1010 r
b10000 q
b1100 |
b1010 {
b110000000101010 %
b110000000101010 J
b110000000101010 N
b110000000101010 !"
b10000111100 2
b10000111100 ^
1\
0V
1]
b111 U
b10000011000000100010100 7
b10000011000000100010100 O
b10000011000000100010100 R
b10000000000000001101100 3
b10000000000000001101100 S
b10000000000000001101100 k
b10000010100110000000101010 /
b10000010100110000000101010 C
b10000010100110000000101010 T
b10000010100110000000101010 i
b10000010100110000000101010 ~
b10000000000000001101100 8
b10000000000000001101100 D
b10000000000000001101100 H
b10000000000000001101100 M
b10000000000000001101100 Q
b10000000000000001110000 n
b10000000000000001101000 1
b10000000000000001101000 F
b10000000000000001101000 G
b10000000000000001101000 h
1:
#250
0:
#260
b11111111111111111111111111111111 #
b11111111111111111111111111111111 g
b11111111111111111111111111111111 u
b10001011000000000000101000 9
b10001011000000000000101000 A
b10001011000000000000101000 l
b1 5
b1 <
b1 L
0!
b11111111111111111111111111111111 6
b11111111111111111111111111111111 >
b11111111111111111111111111111111 _
b11111111111111111111111111111111 e
04
b10001011000000000000101000 ,
b10001011000000000000101000 @
b10001011000000000000101000 B
b1 )
b1 K
b1 b
b1 x
b0 *
b0 =
b0 w
b1011 "
b1011 v
b1011 }
b110 ;
1P
0s
0z
b10000000000000001110000 +
b10000000000000001110000 E
b10000000000000001110000 m
b1011 r
b1100 q
b0 |
b1011 {
b100110000 2
b100110000 ^
1W
0]
b110 U
0\
b1010 %
b1010 J
b1010 N
b1010 !"
b10000000000000010011000 7
b10000000000000010011000 O
b10000000000000010011000 R
b10000000000000001110000 3
b10000000000000001110000 S
b10000000000000001110000 k
b10001100010110000000000001010 /
b10001100010110000000000001010 C
b10001100010110000000000001010 T
b10001100010110000000000001010 i
b10001100010110000000000001010 ~
b10000000000000001110000 8
b10000000000000001110000 D
b10000000000000001110000 H
b10000000000000001110000 M
b10000000000000001110000 Q
b10000000000000001110100 n
b10000000000000001101100 1
b10000000000000001101100 F
b10000000000000001101100 G
b10000000000000001101100 h
1:
#270
0:
#280
b0 #
b0 g
b0 u
b0 9
b0 A
b0 l
b0 5
b0 <
b0 L
1!
b0 6
b0 >
b0 _
b0 e
b0 ,
b0 @
b0 B
b0 )
b0 K
b0 b
b0 x
b0 "
b0 v
b0 }
b0 ;
0P
1s
1z
b10000000000000001110100 +
b10000000000000001110100 E
b10000000000000001110100 m
b0 r
b0 q
b0 {
b0 %
b0 J
b0 N
b0 !"
b10000000100 2
b10000000100 ^
1]
1\
b0 U
0W
b10000000000000001110100 7
b10000000000000001110100 O
b10000000000000001110100 R
b10000000000000001110100 3
b10000000000000001110100 S
b10000000000000001110100 k
b0 /
b0 C
b0 T
b0 i
b0 ~
b10000000000000001110100 8
b10000000000000001110100 D
b10000000000000001110100 H
b10000000000000001110100 M
b10000000000000001110100 Q
b10000000000000001111000 n
b10000000000000001110000 1
b10000000000000001110000 F
b10000000000000001110000 G
b10000000000000001110000 h
1:
#290
0:
#300
b10000000000000001111000 +
b10000000000000001111000 E
b10000000000000001111000 m
b10000000000000001111000 7
b10000000000000001111000 O
b10000000000000001111000 R
b10000000000000001111000 3
b10000000000000001111000 S
b10000000000000001111000 k
b10000000000000001111000 8
b10000000000000001111000 D
b10000000000000001111000 H
b10000000000000001111000 M
b10000000000000001111000 Q
b10000000000000001111100 n
b10000000000000001110100 1
b10000000000000001110100 F
b10000000000000001110100 G
b10000000000000001110100 h
1:
#310
0:
#320
b1001 #
b1001 g
b1001 u
b100111111111111111100 9
b100111111111111111100 A
b100111111111111111100 l
0!
b1001 6
b1001 >
b1001 _
b1001 e
b11111111111111111111111111111111 5
b11111111111111111111111111111111 <
b11111111111111111111111111111111 L
b100111111111111111100 ,
b100111111111111111100 @
b100111111111111111100 B
b1010 )
b1010 K
b1010 b
b1010 x
b1010 *
b1010 =
b1010 w
b100 "
b100 v
b100 }
b10 ;
1I
0z
b10000000000000001111100 +
b10000000000000001111100 E
b10000000000000001111100 m
b100 r
b10000 q
b11111 |
b100 {
b10110 2
b10110 ^
1V
b10 U
1]
0\
b11111111111111111111111111111111 %
b11111111111111111111111111111111 J
b11111111111111111111111111111111 N
b11111111111111111111111111111111 !"
b10000000000000001111000 7
b10000000000000001111000 O
b10000000000000001111000 R
b10000000000000001111100 3
b10000000000000001111100 S
b10000000000000001111100 k
b100010000001001111111111111111 /
b100010000001001111111111111111 C
b100010000001001111111111111111 T
b100010000001001111111111111111 i
b100010000001001111111111111111 ~
b10000000000000001111100 8
b10000000000000001111100 D
b10000000000000001111100 H
b10000000000000001111100 M
b10000000000000001111100 Q
b10000000000000010000000 n
b10000000000000001111000 1
b10000000000000001111000 F
b10000000000000001111000 G
b10000000000000001111000 h
1:
#330
b1001 (
b1001 o
b1001 ""
0:
#340
b0 #
b0 g
b0 u
b10000000000000001001000 9
b10000000000000001001000 A
b10000000000000001001000 l
1!
b0 6
b0 >
b0 _
b0 e
b10000000000000001001000 ,
b10000000000000001001000 @
b10000000000000001001000 B
b0 *
b0 =
b0 w
b10000 "
b10000 v
b10000 }
b1010 5
b1010 <
b1010 L
b0 ;
0I
1j
b10000000000000001001000 +
b10000000000000001001000 E
b10000000000000001001000 m
b10000 r
b0 q
b0 |
b10000 {
b10010 %
b10010 J
b10010 N
b10010 !"
b1000000100 2
b1000000100 ^
1.
1X
0V
1]
b0 U
b10000000000000011001000 7
b10000000000000011001000 O
b10000000000000011001000 R
b10000000000000010000000 3
b10000000000000010000000 S
b10000000000000010000000 k
b1100000100000000000000010010 /
b1100000100000000000000010010 C
b1100000100000000000000010010 T
b1100000100000000000000010010 i
b1100000100000000000000010010 ~
b10000000000000010000000 8
b10000000000000010000000 D
b10000000000000010000000 H
b10000000000000010000000 M
b10000000000000010000000 Q
b10000000000000010000100 n
b10000000000000001111100 1
b10000000000000001111100 F
b10000000000000001111100 G
b10000000000000001111100 h
1:
#350
b10000000000000010000100 '
b10000000000000010000100 ?
b10000000000000010000100 p
0:
#360
b1111111111111111111111111100100 #
b1111111111111111111111111100100 g
b1111111111111111111111111100100 u
b10111101111111111111010000 9
b10111101111111111111010000 A
b10111101111111111111010000 l
0!
b1111111111111111111111111100100 6
b1111111111111111111111111100100 >
b1111111111111111111111111100100 _
b1111111111111111111111111100100 e
b11111111111111111111111111110100 5
b11111111111111111111111111110100 <
b11111111111111111111111111110100 L
b10000000000000001001100 +
b10000000000000001001100 E
b10000000000000001001100 m
b10111101111111111111010000 ,
b10111101111111111111010000 @
b10111101111111111111010000 B
b1111111111111111111111111110000 )
b1111111111111111111111111110000 K
b1111111111111111111111111110000 b
b1111111111111111111111111110000 x
b1111111111111111111111111110000 *
b1111111111111111111111111110000 =
b1111111111111111111111111110000 w
b11101 "
b11101 v
b11101 }
b10 ;
1I
0j
b11101 r
b11101 q
b11111 |
b11101 {
b10110 2
b10110 ^
1V
b10 U
0.
1]
0X
b11111111111111111111111111110100 %
b11111111111111111111111111110100 J
b11111111111111111111111111110100 N
b11111111111111111111111111110100 !"
b10000000000000000011100 7
b10000000000000000011100 O
b10000000000000000011100 R
b10000000000000001001100 3
b10000000000000001001100 S
b10000000000000001001100 k
b100011101111011111111111110100 /
b100011101111011111111111110100 C
b100011101111011111111111110100 T
b100011101111011111111111110100 i
b100011101111011111111111110100 ~
b10000000000000001001100 8
b10000000000000001001100 D
b10000000000000001001100 H
b10000000000000001001100 M
b10000000000000001001100 Q
b10000000000000001010000 n
b10000000000000001001000 1
b10000000000000001001000 F
b10000000000000001001000 G
b10000000000000001001000 h
1:
#370
0:
#380
b1111111111111111111111111101100 #
b1111111111111111111111111101100 g
b1111111111111111111111111101100 u
b10111111000000000000100000 9
b10111111000000000000100000 A
b10111111000000000000100000 l
b1111111111111111111111111101100 6
b1111111111111111111111111101100 >
b1111111111111111111111111101100 _
b1111111111111111111111111101100 e
b10111111000000000000100000 ,
b10111111000000000000100000 @
b10111111000000000000100000 B
b10000000000000010000100 )
b10000000000000010000100 K
b10000000000000010000100 b
b10000000000000010000100 x
b1111111111111111111111111100100 *
b1111111111111111111111111100100 =
b1111111111111111111111111100100 w
b11111 "
b11111 v
b11111 }
b1000 5
b1000 <
b1000 L
1a
0s
b10000000000000001010000 +
b10000000000000001010000 E
b10000000000000001010000 m
b11111 r
b0 |
b11111 {
b1000 %
b1000 J
b1000 N
b1000 !"
b10011 2
b10011 ^
1[
1V
0]
b10 U
b10000000000000001110000 7
b10000000000000001110000 O
b10000000000000001110000 R
b10000000000000001010000 3
b10000000000000001010000 S
b10000000000000001010000 k
b10101111101111110000000000001000 /
b10101111101111110000000000001000 C
b10101111101111110000000000001000 T
b10101111101111110000000000001000 i
b10101111101111110000000000001000 ~
b10000000000000001010000 8
b10000000000000001010000 D
b10000000000000001010000 H
b10000000000000001010000 M
b10000000000000001010000 Q
b10000000000000001010100 n
b10000000000000001001100 1
b10000000000000001001100 F
b10000000000000001001100 G
b10000000000000001001100 h
1:
#390
0:
